uP_wav.vcd
$date
	Fri Jul 17 13:33:14 2026
$end
$version
	Icarus Verilog
$end
$timescale
	1ps
$end
$scope module uP_8085_tb $end
$var wire 1 ! wr_bar $end
$var wire 1 " rd_bar $end
$var wire 1 # io_m_bar $end
$var wire 8 $ data_out [7:0] $end
$var wire 1 % ale $end
$var wire 16 & address [15:0] $end
$var wire 8 ' a15_a8 [7:0] $end
$var reg 1 ( clk $end
$var reg 8 ) data_in [7:0] $end
$var reg 1 * rst $end
$scope module dut $end
$var wire 1 ( clk $end
$var wire 8 + data_in [7:0] $end
$var wire 1 * rst $end
$var wire 1 , z_load $end
$var wire 8 - z_data [7:0] $end
$var wire 16 . wz_addr [15:0] $end
$var wire 1 ! wr_bar $end
$var wire 1 / w_load $end
$var wire 8 0 w_data [7:0] $end
$var wire 1 1 temp_enable $end
$var wire 1 2 sp_load $end
$var wire 1 3 sp_inc $end
$var wire 1 4 sp_dec $end
$var wire 16 5 sp_addr [15:0] $end
$var wire 3 6 source_reg [2:0] $end
$var wire 8 7 result [7:0] $end
$var wire 1 8 reg_write $end
$var wire 2 9 reg_pair [1:0] $end
$var wire 1 " rd_bar $end
$var wire 1 : pc_load $end
$var wire 1 ; pc_inc $end
$var wire 16 < pc_addr [15:0] $end
$var wire 8 = operand2 [7:0] $end
$var wire 8 > operand1 [7:0] $end
$var wire 8 ? ir_opcode [7:0] $end
$var wire 1 @ ir_load $end
$var wire 1 # io_m_bar $end
$var wire 16 A hl_addr [15:0] $end
$var wire 8 B flags_out [7:0] $end
$var wire 8 C flags_in [7:0] $end
$var wire 8 D flag_register_mask [7:0] $end
$var wire 7 E encoded_ins [6:0] $end
$var wire 3 F des_reg [2:0] $end
$var wire 16 G de_addr [15:0] $end
$var wire 8 H data_reg [7:0] $end
$var wire 8 I data_out [7:0] $end
$var wire 3 J data_bus_sel [2:0] $end
$var wire 3 K cu_src_reg [2:0] $end
$var wire 3 L cu_des_reg [2:0] $end
$var wire 1 M carry_in $end
$var wire 16 N bc_addr [15:0] $end
$var wire 5 O alu_opcode [4:0] $end
$var wire 1 % ale $end
$var wire 3 P addr_bus_sel [2:0] $end
$var wire 8 Q a15_a8 [7:0] $end
$var parameter 3 R ADDR_BC $end
$var parameter 3 S ADDR_DE $end
$var parameter 3 T ADDR_HL $end
$var parameter 3 U ADDR_PC $end
$var parameter 3 V ADDR_SP $end
$var parameter 3 W ADDR_WZ $end
$var parameter 3 X DATA_ALU $end
$var parameter 3 Y DATA_FLAG $end
$var parameter 3 Z DATA_MEM $end
$var parameter 3 [ DATA_REG $end
$var parameter 3 \ DATA_W $end
$var parameter 3 ] DATA_Z $end
$var reg 16 ^ address_bus [15:0] $end
$var reg 8 _ data_bus [7:0] $end
$scope module Arithmetic_Logical_Unit $end
$var wire 8 ` operand2 [7:0] $end
$var wire 8 a operand1 [7:0] $end
$var wire 1 M carry_in $end
$var wire 5 b alu_op [4:0] $end
$var parameter 5 c ADC $end
$var parameter 5 d ADD $end
$var parameter 5 e ANA $end
$var parameter 5 f CMA $end
$var parameter 5 g CMC $end
$var parameter 5 h CMP $end
$var parameter 5 i DCR $end
$var parameter 5 j INR $end
$var parameter 5 k ORA $end
$var parameter 5 l RAL $end
$var parameter 5 m RAR $end
$var parameter 5 n RLC $end
$var parameter 5 o RRC $end
$var parameter 5 p SBB $end
$var parameter 5 q STC $end
$var parameter 5 r SUB $end
$var parameter 5 s XRA $end
$var reg 1 t aux_carry $end
$var reg 1 u carry $end
$var reg 8 v flags [7:0] $end
$var reg 1 w parity_even $end
$var reg 8 x result [7:0] $end
$var reg 1 y sign $end
$var reg 4 z temp_nibble [3:0] $end
$var reg 1 { zero $end
$upscope $end
$scope module Flag_Register $end
$var wire 1 ( clk $end
$var wire 8 | flag_in [7:0] $end
$var wire 1 * rst $end
$var wire 8 } flag_mask [7:0] $end
$var wire 1 M carry $end
$var reg 8 ~ flag_out [7:0] $end
$upscope $end
$scope module Instruction_Decoder $end
$var wire 8 !" opcode [7:0] $end
$var reg 3 "" des_reg [2:0] $end
$var reg 7 #" ins_encode [6:0] $end
$var reg 2 $" reg_pair [1:0] $end
$var reg 3 %" source_reg [2:0] $end
$upscope $end
$scope module Instruction_Register $end
$var wire 1 ( clk $end
$var wire 8 &" data_in [7:0] $end
$var wire 1 * rst $end
$var wire 1 @ ir_load $end
$var reg 8 '" data_out [7:0] $end
$upscope $end
$scope module Program_Counter $end
$var wire 16 (" addr_in [15:0] $end
$var wire 1 ( clk $end
$var wire 1 * rst $end
$var wire 1 : pc_load $end
$var wire 1 ; pc_inc $end
$var reg 16 )" addr_out [15:0] $end
$upscope $end
$scope module Register $end
$var wire 8 *" accumulator [7:0] $end
$var wire 1 ( clk $end
$var wire 1 * rst $end
$var wire 8 +" write_data [7:0] $end
$var wire 1 8 reg_write $end
$var wire 3 ," reg_sel_write [2:0] $end
$var wire 3 -" reg_sel_read [2:0] $end
$var wire 16 ." hl_addr [15:0] $end
$var wire 16 /" de_addr [15:0] $end
$var wire 16 0" bc_addr [15:0] $end
$var reg 8 1" A [7:0] $end
$var reg 8 2" B [7:0] $end
$var reg 8 3" C [7:0] $end
$var reg 8 4" D [7:0] $end
$var reg 8 5" E [7:0] $end
$var reg 8 6" H [7:0] $end
$var reg 8 7" L [7:0] $end
$var reg 8 8" reg_data [7:0] $end
$upscope $end
$scope module Stack_Pointer $end
$var wire 16 9" addr_in [15:0] $end
$var wire 1 ( clk $end
$var wire 1 * rst $end
$var wire 1 2 sp_load $end
$var wire 1 3 sp_inc $end
$var wire 1 4 sp_dec $end
$var reg 16 :" addr_out [15:0] $end
$upscope $end
$scope module Temp_Register $end
$var wire 1 ( clk $end
$var wire 8 ;" operand_data_bus [7:0] $end
$var wire 1 * rst $end
$var wire 1 1 temp_enable $end
$var reg 8 <" alu_operand2 [7:0] $end
$upscope $end
$scope module Timing_and_Control_Unit $end
$var wire 1 ( clk $end
$var wire 3 =" des_reg [2:0] $end
$var wire 7 >" encoded_ins [6:0] $end
$var wire 2 ?" reg_pair [1:0] $end
$var wire 1 * rst $end
$var wire 3 @" source_reg [2:0] $end
$var parameter 3 A" A $end
$var parameter 3 B" B $end
$var parameter 3 C" C $end
$var parameter 3 D" D $end
$var parameter 3 E" E $end
$var parameter 5 F" EXECUTE1 $end
$var parameter 5 G" EXECUTE2 $end
$var parameter 3 H" H $end
$var parameter 3 I" L $end
$var parameter 5 J" OF_T1 $end
$var parameter 5 K" OF_T2 $end
$var parameter 5 L" OF_T3 $end
$var parameter 5 M" OF_T4 $end
$var parameter 5 N" OP1_T1 $end
$var parameter 5 O" OP1_T2 $end
$var parameter 5 P" OP1_T3 $end
$var parameter 5 Q" OP2_T1 $end
$var parameter 5 R" OP2_T2 $end
$var parameter 5 S" OP2_T3 $end
$var parameter 5 T" RESET $end
$var parameter 5 U" WB1_T1 $end
$var parameter 5 V" WB1_T2 $end
$var parameter 5 W" WB1_T3 $end
$var parameter 5 X" WB2_T1 $end
$var parameter 5 Y" WB2_T2 $end
$var parameter 5 Z" WB2_T3 $end
$var reg 3 [" addr_bus_sel [2:0] $end
$var reg 1 % ale $end
$var reg 5 \" alu_opcode [4:0] $end
$var reg 3 ]" data_bus_sel [2:0] $end
$var reg 8 ^" flag_register_mask [7:0] $end
$var reg 1 # io_m_bar $end
$var reg 1 @ ir_load $end
$var reg 5 _" next_state [4:0] $end
$var reg 1 ; pc_inc $end
$var reg 1 : pc_load $end
$var reg 5 `" present_state [4:0] $end
$var reg 1 " rd_bar $end
$var reg 3 a" reg_des [2:0] $end
$var reg 3 b" reg_source [2:0] $end
$var reg 1 8 reg_write $end
$var reg 1 4 sp_dec $end
$var reg 1 3 sp_inc $end
$var reg 1 2 sp_load $end
$var reg 1 1 temp_enable $end
$var reg 1 / w_load $end
$var reg 1 ! wr_bar $end
$var reg 1 , z_load $end
$upscope $end
$scope module WZ_Register $end
$var wire 1 ( clk $end
$var wire 8 c" data_in [7:0] $end
$var wire 1 * rst $end
$var wire 1 / w_load $end
$var wire 8 d" w_out [7:0] $end
$var wire 1 , z_load $end
$var wire 8 e" z_out [7:0] $end
$var wire 16 f" wz_addr [15:0] $end
$var reg 8 g" w_reg [7:0] $end
$var reg 8 h" z_reg [7:0] $end
$upscope $end
$upscope $end
$upscope $end
$enddefinitions $end
$comment Show the parameter values. $end
$dumpall
b10010 Z"
b10001 Y"
b10000 X"
b1111 W"
b1110 V"
b1101 U"
b0 T"
b1010 S"
b1001 R"
b1000 Q"
b111 P"
b110 O"
b101 N"
b100 M"
b11 L"
b10 K"
b1 J"
b101 I"
b100 H"
b1100 G"
b1011 F"
b11 E"
b10 D"
b1 C"
b0 B"
b111 A"
b1000 s
b10 r
b10000 q
b11 p
b1011 o
b1010 n
b1101 m
b1100 l
b111 k
b100 j
b101 i
b1001 h
b1111 g
b1110 f
b110 e
b0 d
b1 c
b100 ]
b11 \
b1 [
b0 Z
b101 Y
b10 X
b101 W
b1 V
b0 U
b100 T
b11 S
b10 R
$end
#0
$dumpvars
b0 h"
b0 g"
b0 f"
b0 e"
b0 d"
b0 c"
b0 b"
b0 a"
b0 `"
b1 _"
b0 ^"
b0 ]"
b0 \"
b0 ["
b0 @"
b0 ?"
b1000111 >"
b0 ="
b0 <"
b0 ;"
b1111111111111111 :"
b0 9"
b0 8"
b0 7"
b0 6"
b0 5"
b0 4"
b0 3"
b0 2"
b0 1"
b0 0"
b0 /"
b0 ."
b0 -"
b0 ,"
b0 +"
b0 *"
b0 )"
b0 ("
b0 '"
b0 &"
b0 %"
b0 $"
b1000111 #"
b0 ""
b0 !"
b0 ~
b0 }
b1000100 |
1{
b0 z
0y
b0 x
1w
b1000100 v
0u
0t
b0 b
b0 a
b0 `
b0 _
b0 ^
b0 Q
b0 P
b0 O
b0 N
0M
b0 L
b0 K
b0 J
b0 I
b0 H
b0 G
b0 F
b1000111 E
b0 D
b1000100 C
b0 B
b0 A
0@
b0 ?
b0 >
b0 =
b0 <
0;
0:
b0 9
08
b0 7
b0 6
b1111111111111111 5
04
03
02
01
b0 0
0/
b0 .
b0 -
0,
b0 +
1*
b0 )
0(
b0 '
b0 &
0%
b0 $
0#
1"
1!
$end
#5000
1%
b10 _"
b1 `"
b0 &
b0 $
b0 I
bz _
bz &"
bz +"
bz ;"
bz c"
bz )
bz +
0*
1(
#10000
0(
#15000
0"
b11 _"
b10 `"
1(
#20000
0(
#25000
b110 &
b110 $
b110 I
1@
0%
b100 _"
b11 `"
b110 _
b110 &"
b110 +"
b110 ;"
b110 c"
b110 )
b110 +
1(
#30000
0(
#35000
1"
0@
1;
b101 _"
b11 E
b11 #"
b11 >"
b100 `"
b110 ?
b110 !"
b110 '"
b1001111 &
b1001111 $
b1001111 I
b1001111 _
b1001111 &"
b1001111 +"
b1001111 ;"
b1001111 c"
b1001111 )
b1001111 +
1(
#40000
0(
#45000
1%
0;
b110 _"
b1 ^
b1 ("
b1 9"
b1 <
b1 )"
b101 `"
b1 &
b1 $
b1 I
bz _
bz &"
bz +"
bz ;"
bz c"
bz )
bz +
1(
#50000
0(
#55000
0"
b111 _"
b110 `"
1(
#60000
0(
#65000
b100011 &
b100011 $
b100011 I
b1 _"
1"
0%
1;
18
b111 `"
b100011 _
b100011 &"
b100011 +"
b100011 ;"
b100011 c"
b100011 )
b100011 +
1(
#70000
0(
#75000
1%
0;
08
b10 _"
b10 ^
b10 ("
b10 9"
b1 `"
b10 <
b10 )"
b10 &
b10 $
b10 I
b100011 H
b100011 8"
bz _
bz &"
bz +"
bz ;"
bz c"
b10001100000000 N
b10001100000000 0"
b100011 2"
bz )
bz +
1(
#80000
0(
#85000
0"
b11 _"
b10 `"
1(
#90000
0(
#95000
b1110 &
b1110 $
b1110 I
1@
0%
b100 _"
b11 `"
b1110 _
b1110 &"
b1110 +"
b1110 ;"
b1110 c"
b1110 )
b1110 +
1(
#100000
0(
#105000
1"
0@
1;
b101 _"
b1 F
b1 ""
b1 ="
b1110 ?
b1110 !"
b1110 '"
b100 `"
b0xxxxxxxx &
bx $
bx I
bx _
bx &"
bx +"
bx ;"
bx c"
bx )
bx +
1(
#110000
0(
#115000
b1 L
b1 ,"
b1 a"
1%
0;
b110 _"
b11 ^
b11 ("
b11 9"
b101 `"
b11 <
b11 )"
b11 &
b11 $
b11 I
bz _
bz &"
bz +"
bz ;"
bz c"
bz )
bz +
1(
#120000
0(
#125000
0"
b111 _"
b110 `"
1(
#130000
0(
#135000
b111101 &
b111101 $
b111101 I
b1 _"
1"
0%
1;
18
b111 `"
b111101 _
b111101 &"
b111101 +"
b111101 ;"
b111101 c"
b111101 )
b111101 +
1(
#140000
0(
#145000
1%
0;
08
b10 _"
b100 ^
b100 ("
b100 9"
b100 <
b100 )"
b1 `"
b100 &
b100 $
b100 I
bz _
bz &"
bz +"
bz ;"
bz c"
b10001100111101 N
b10001100111101 0"
b111101 3"
bz )
bz +
1(
#150000
0(
#155000
0"
b11 _"
b10 `"
1(
#160000
0(
#165000
b1111000 &
b1111000 $
b1111000 I
1@
0%
b100 _"
b11 `"
b1111000 _
b1111000 &"
b1111000 +"
b1111000 ;"
b1111000 c"
b1111000 )
b1111000 +
1(
#170000
0(
#175000
b111 L
b111 ,"
b111 a"
1"
0@
1;
b1011 _"
b111 F
b111 ""
b111 ="
b0 E
b0 #"
b0 >"
b100 `"
b1111000 ?
b1111000 !"
b1111000 '"
b0xxxxxxxx &
bx $
bx I
bx _
bx &"
bx +"
bx ;"
bx c"
bx )
bx +
1(
#180000
0(
#185000
b1 J
b1 ]"
0;
18
b1 _"
b101 ^
b101 ("
b101 9"
b101 <
b101 )"
b1011 `"
b100011 &
b100011 $
b100011 I
b100011 _
b100011 &"
b100011 +"
b100011 ;"
b100011 c"
bz )
bz +
1(
#190000
0(
#195000
bz _
bz &"
bz +"
bz ;"
bz c"
b101 &
b101 $
b101 I
b0 J
b0 ]"
1%
08
b10 _"
b1 `"
0w
0{
b11 z
b100011 7
b100011 x
b0 C
b0 v
b0 |
b100011 >
b100011 a
b100011 *"
b100011 1"
1(
#200000
0(
#205000
0"
b11 _"
b10 `"
1(
#210000
0(
#215000
b10000001 &
b10000001 $
b10000001 I
1@
0%
b100 _"
b11 `"
b10000001 _
b10000001 &"
b10000001 +"
b10000001 ;"
b10000001 c"
b10000001 )
b10000001 +
1(
#220000
0(
#225000
b111101 H
b111101 8"
b1 K
b1 -"
b1 b"
1"
0@
1;
b1011 _"
b1 6
b1 %"
b1 @"
b10001 E
b10001 #"
b10001 >"
b10000001 ?
b10000001 !"
b10000001 '"
b100 `"
b0xxxxxxxx &
bx $
bx I
bx _
bx &"
bx +"
bx ;"
bx c"
bx )
bx +
1(
#230000
0(
#235000
b1 J
b1 ]"
11
0;
b1100 _"
b110 ^
b110 ("
b110 9"
b1011 `"
b110 <
b110 )"
b111101 &
b111101 $
b111101 I
b111101 _
b111101 &"
b111101 +"
b111101 ;"
b111101 c"
bz )
bz +
1(
#240000
0(
#245000
b1100000 &
b1100000 $
b1100000 I
b1100000 _
b1100000 &"
b1100000 +"
b1100000 ;"
b1100000 c"
b11111111 D
b11111111 }
b11111111 ^"
b10 J
b10 ]"
01
18
b1 _"
b10100 C
b10100 v
b10100 |
1w
1t
b0 z
b1100000 7
b1100000 x
b111101 =
b111101 `
b111101 <"
b1100 `"
1(
#250000
0(
#255000
b0 D
b0 }
b0 ^"
b0 J
b0 ]"
1%
08
b10 _"
b1 `"
b10100 B
b10100 ~
b110 &
b110 $
b110 I
bz _
bz &"
bz +"
bz ;"
bz c"
0w
1y
b1101 z
0t
b10000000 C
b10000000 v
b10000000 |
b10011101 7
b10011101 x
b1100000 >
b1100000 a
b1100000 *"
b1100000 1"
1(
#260000
0(
#265000
0"
b11 _"
b10 `"
1(
#270000
0(
#275000
b1001111 &
b1001111 $
b1001111 I
1@
0%
b100 _"
b11 `"
b1001111 _
b1001111 &"
b1001111 +"
b1001111 ;"
b1001111 c"
b1001111 )
b1001111 +
1(
#280000
0(
#285000
b1100000 H
b1100000 8"
b1 L
b1 ,"
b1 a"
b111 K
b111 -"
b111 b"
1"
0@
1;
b1011 _"
b1 F
b1 ""
b1 ="
b111 6
b111 %"
b111 @"
b0 E
b0 #"
b0 >"
b1001111 ?
b1001111 !"
b1001111 '"
b100 `"
b0xxxxxxxx &
bx $
bx I
bx _
bx &"
bx +"
bx ;"
bx c"
bx )
bx +
1(
#290000
0(
#295000
b1 J
b1 ]"
0;
18
b1 _"
b111 ^
b111 ("
b111 9"
b1011 `"
b111 <
b111 )"
b1100000 &
b1100000 $
b1100000 I
b1100000 _
b1100000 &"
b1100000 +"
b1100000 ;"
b1100000 c"
bz )
bz +
1(
#300000
0(
#305000
bz _
bz &"
bz +"
bz ;"
bz c"
b111 &
b111 $
b111 I
b0 J
b0 ]"
1%
08
b10 _"
b1 `"
b10001101100000 N
b10001101100000 0"
b1100000 3"
1(
#310000
0(
#315000
0"
b11 _"
b10 `"
1(
#320000
0(
#325000
b100001 &
b100001 $
b100001 I
1@
0%
b100 _"
b11 `"
b100001 _
b100001 &"
b100001 +"
b100001 ;"
b100001 c"
b100001 )
b100001 +
1(
#330000
0(
#335000
b100011 H
b100011 8"
b0 L
b0 ,"
b0 a"
b0 K
b0 -"
b0 b"
1"
0@
1;
b101 _"
b0 6
b0 %"
b0 @"
b0 F
b0 ""
b0 ="
b10 9
b10 $"
b10 ?"
b101 E
b101 #"
b101 >"
b100 `"
b100001 ?
b100001 !"
b100001 '"
b0xxxxxxxx &
bx $
bx I
bx _
bx &"
bx +"
bx ;"
bx c"
bx )
bx +
1(
#340000
0(
#345000
1%
0;
b110 _"
b1000 ^
b1000 ("
b1000 9"
b1000 <
b1000 )"
b101 `"
b1000 &
b1000 $
b1000 I
bz _
bz &"
bz +"
bz ;"
bz c"
bz )
bz +
1(
#350000
0(
#355000
0"
b111 _"
b110 `"
1(
#360000
0(
#365000
b1010000 &
b1010000 $
b1010000 I
b1000 _"
b101 L
b101 ,"
b101 a"
1"
0%
1;
18
b111 `"
b1010000 _
b1010000 &"
b1010000 +"
b1010000 ;"
b1010000 c"
b1010000 )
b1010000 +
1(
#370000
0(
#375000
b0 L
b0 ,"
b0 a"
1%
0;
08
b1001 _"
b1001 ^
b1001 ("
b1001 9"
b1000 `"
b1001 <
b1001 )"
b1001 &
b1001 $
b1001 I
bz _
bz &"
bz +"
bz ;"
bz c"
b1010000 A
b1010000 ."
b1010000 7"
bz )
bz +
1(
#380000
0(
#385000
0"
b1010 _"
b1001 `"
1(
#390000
0(
#395000
b100000 &
b100000 $
b100000 I
b100 L
b100 ,"
b100 a"
1"
0%
1;
18
b1 _"
b1010 `"
b100000 _
b100000 &"
b100000 +"
b100000 ;"
b100000 c"
b100000 )
b100000 +
1(
#400000
0(
#405000
b0 L
b0 ,"
b0 a"
1%
0;
08
b10 _"
b1010 ^
b1010 ("
b1010 9"
b1010 <
b1010 )"
b1 `"
b1010 &
b1010 $
b1010 I
bz _
bz &"
bz +"
bz ;"
bz c"
b10000001010000 A
b10000001010000 ."
b100000 6"
bz )
bz +
1(
#410000
0(
#415000
0"
b11 _"
b10 `"
1(
#420000
0(
#425000
b0xxxxxxxx &
bx $
bx I
1@
0%
b100 _"
b11 `"
bx _
bx &"
bx +"
bx ;"
bx c"
bx )
bx +
1(
#430000
0(
#435000
1"
0@
1;
b0 9
b0 $"
b0 ?"
b1111111 E
b1111111 #"
b1111111 >"
b100 `"
bx ?
bx !"
bx '"
1(
#440000
0(
#445000
b1011 ^
b1011 ("
b1011 9"
b1011 <
b1011 )"
b0zzzzzzzz &
bz $
bz I
bz _
bz &"
bz +"
bz ;"
bz c"
bz )
bz +
1(
#450000
0(
#455000
b1100 ^
b1100 ("
b1100 9"
b1100 <
b1100 )"
1(
#460000
0(
#465000
b1101 ^
b1101 ("
b1101 9"
b1101 <
b1101 )"
1(
#470000
0(
#475000
b1110 ^
b1110 ("
b1110 9"
b1110 <
b1110 )"
1(
#480000
0(
#485000
b1111 ^
b1111 ("
b1111 9"
b1111 <
b1111 )"
1(
#490000
0(
#495000
b10000 ^
b10000 ("
b10000 9"
b10000 <
b10000 )"
1(
#500000
0(
#505000
b10001 ^
b10001 ("
b10001 9"
b10001 <
b10001 )"
1(
#510000
0(
#515000
b10010 ^
b10010 ("
b10010 9"
b10010 <
b10010 )"
1(
#520000
0(
#525000
b10011 ^
b10011 ("
b10011 9"
b10011 <
b10011 )"
1(
#530000
0(
#535000
b10100 ^
b10100 ("
b10100 9"
b10100 <
b10100 )"
1(
#540000
0(
#545000
b10101 ^
b10101 ("
b10101 9"
b10101 <
b10101 )"
1(
#550000
0(
#555000
b10110 ^
b10110 ("
b10110 9"
b10110 <
b10110 )"
1(
#560000
0(
#565000
b10111 ^
b10111 ("
b10111 9"
b10111 <
b10111 )"
1(
#570000
0(
#575000
b11000 ^
b11000 ("
b11000 9"
b11000 <
b11000 )"
1(
#580000
0(
#585000
b11001 ^
b11001 ("
b11001 9"
b11001 <
b11001 )"
1(
#590000
0(
#595000
b11010 ^
b11010 ("
b11010 9"
b11010 <
b11010 )"
1(
#600000
0(
#605000
b11011 ^
b11011 ("
b11011 9"
b11011 <
b11011 )"
1(
#610000
0(
#615000
b11100 ^
b11100 ("
b11100 9"
b11100 <
b11100 )"
1(
#620000
0(
#625000
b11101 ^
b11101 ("
b11101 9"
b11101 <
b11101 )"
1(
#630000
0(
#635000
b11110 ^
b11110 ("
b11110 9"
b11110 <
b11110 )"
1(
#640000
0(
#645000
b11111 ^
b11111 ("
b11111 9"
b11111 <
b11111 )"
1(
#650000
0(
#655000
b100000 ^
b100000 ("
b100000 9"
b100000 <
b100000 )"
1(
#660000
0(
#665000
b100001 ^
b100001 ("
b100001 9"
b100001 <
b100001 )"
1(
#670000
0(
#675000
b100010 ^
b100010 ("
b100010 9"
b100010 <
b100010 )"
1(
#680000
0(
#685000
b100011 ^
b100011 ("
b100011 9"
b100011 <
b100011 )"
1(
#690000
0(
#695000
b100100 ^
b100100 ("
b100100 9"
b100100 <
b100100 )"
1(
#700000
0(
#705000
b100101 ^
b100101 ("
b100101 9"
b100101 <
b100101 )"
1(
#710000
0(
#715000
b100110 ^
b100110 ("
b100110 9"
b100110 <
b100110 )"
1(
#720000
0(
#725000
b100111 ^
b100111 ("
b100111 9"
b100111 <
b100111 )"
1(
#730000
0(
#735000
b101000 ^
b101000 ("
b101000 9"
b101000 <
b101000 )"
1(
#740000
0(
#745000
b101001 ^
b101001 ("
b101001 9"
b101001 <
b101001 )"
1(
#750000
0(
#755000
b101010 ^
b101010 ("
b101010 9"
b101010 <
b101010 )"
1(
#760000
0(
#765000
b101011 ^
b101011 ("
b101011 9"
b101011 <
b101011 )"
1(
#770000
0(
#775000
b101100 ^
b101100 ("
b101100 9"
b101100 <
b101100 )"
1(
#780000
0(
#785000
b101101 ^
b101101 ("
b101101 9"
b101101 <
b101101 )"
1(
#790000
0(
#795000
b101110 ^
b101110 ("
b101110 9"
b101110 <
b101110 )"
1(
#800000
0(
#805000
b101111 ^
b101111 ("
b101111 9"
b101111 <
b101111 )"
1(
#810000
0(
#815000
b110000 ^
b110000 ("
b110000 9"
b110000 <
b110000 )"
1(
#820000
0(
#825000
b110001 ^
b110001 ("
b110001 9"
b110001 <
b110001 )"
1(
#830000
0(
#835000
b110010 ^
b110010 ("
b110010 9"
b110010 <
b110010 )"
1(
#840000
0(
#845000
b110011 ^
b110011 ("
b110011 9"
b110011 <
b110011 )"
1(
#850000
0(
#855000
b110100 ^
b110100 ("
b110100 9"
b110100 <
b110100 )"
1(
#860000
0(
#865000
b110101 ^
b110101 ("
b110101 9"
b110101 <
b110101 )"
1(
#870000
0(
#875000
b110110 ^
b110110 ("
b110110 9"
b110110 <
b110110 )"
1(
#880000
0(
#885000
b110111 ^
b110111 ("
b110111 9"
b110111 <
b110111 )"
1(
#890000
0(
#895000
b111000 ^
b111000 ("
b111000 9"
b111000 <
b111000 )"
1(
#900000
0(
#905000
b111001 ^
b111001 ("
b111001 9"
b111001 <
b111001 )"
1(
#910000
0(
#915000
b111010 ^
b111010 ("
b111010 9"
b111010 <
b111010 )"
1(
#920000
0(
#925000
b111011 ^
b111011 ("
b111011 9"
b111011 <
b111011 )"
1(
#930000
0(
#935000
b111100 ^
b111100 ("
b111100 9"
b111100 <
b111100 )"
1(
#940000
0(
#945000
b111101 ^
b111101 ("
b111101 9"
b111101 <
b111101 )"
1(
#950000
0(
#955000
b111110 ^
b111110 ("
b111110 9"
b111110 <
b111110 )"
1(
#960000
0(
#965000
b111111 ^
b111111 ("
b111111 9"
b111111 <
b111111 )"
1(
#970000
0(
#975000
b1000000 ^
b1000000 ("
b1000000 9"
b1000000 <
b1000000 )"
1(
#980000
0(
#985000
b1000001 ^
b1000001 ("
b1000001 9"
b1000001 <
b1000001 )"
1(
#990000
0(
#995000
b1000010 ^
b1000010 ("
b1000010 9"
b1000010 <
b1000010 )"
1(
#1000000
0(
#1005000
b1000011 ^
b1000011 ("
b1000011 9"
b1000011 <
b1000011 )"
1(
