uP_wav.vcd
$date
	Wed Jul 15 16:26:33 2026
$end
$version
	Icarus Verilog
$end
$timescale
	1ps
$end
$scope module uP_8085_tb $end
$var wire 1 ! wr_bar $end
$var wire 1 " rd_bar $end
$var wire 1 # io_m_bar $end
$var wire 8 $ data_out [7:0] $end
$var wire 1 % ale $end
$var wire 16 & address [15:0] $end
$var wire 8 ' a15_a8 [7:0] $end
$var reg 1 ( clk $end
$var reg 8 ) data_in [7:0] $end
$var reg 1 * rst $end
$scope module dut $end
$var wire 1 ( clk $end
$var wire 8 + data_in [7:0] $end
$var wire 1 * rst $end
$var wire 1 , z_load $end
$var wire 8 - z_data [7:0] $end
$var wire 16 . wz_addr [15:0] $end
$var wire 1 ! wr_bar $end
$var wire 1 / w_load $end
$var wire 8 0 w_data [7:0] $end
$var wire 1 1 temp_enable $end
$var wire 1 2 sp_load $end
$var wire 1 3 sp_inc $end
$var wire 1 4 sp_dec $end
$var wire 16 5 sp_addr [15:0] $end
$var wire 3 6 source_reg [2:0] $end
$var wire 8 7 result [7:0] $end
$var wire 1 8 reg_write $end
$var wire 2 9 reg_pair [1:0] $end
$var wire 1 " rd_bar $end
$var wire 1 : pc_load $end
$var wire 1 ; pc_inc $end
$var wire 16 < pc_addr [15:0] $end
$var wire 8 = operand2 [7:0] $end
$var wire 8 > operand1 [7:0] $end
$var wire 8 ? ir_opcode [7:0] $end
$var wire 1 @ ir_load $end
$var wire 1 # io_m_bar $end
$var wire 16 A hl_addr [15:0] $end
$var wire 8 B flags_out [7:0] $end
$var wire 8 C flags_in [7:0] $end
$var wire 8 D flag_register_mask [7:0] $end
$var wire 7 E encoded_ins [6:0] $end
$var wire 3 F des_reg [2:0] $end
$var wire 16 G de_addr [15:0] $end
$var wire 8 H data_reg [7:0] $end
$var wire 8 I data_out [7:0] $end
$var wire 3 J data_bus_sel [2:0] $end
$var wire 1 K carry_in $end
$var wire 16 L bc_addr [15:0] $end
$var wire 5 M alu_opcode [4:0] $end
$var wire 1 % ale $end
$var wire 3 N addr_bus_sel [2:0] $end
$var wire 8 O a15_a8 [7:0] $end
$var parameter 3 P ADDR_BC $end
$var parameter 3 Q ADDR_DE $end
$var parameter 3 R ADDR_HL $end
$var parameter 3 S ADDR_PC $end
$var parameter 3 T ADDR_SP $end
$var parameter 3 U ADDR_WZ $end
$var parameter 3 V DATA_ALU $end
$var parameter 3 W DATA_FLAG $end
$var parameter 3 X DATA_MEM $end
$var parameter 3 Y DATA_REG $end
$var parameter 3 Z DATA_W $end
$var parameter 3 [ DATA_Z $end
$var reg 16 \ address_bus [15:0] $end
$var reg 8 ] data_bus [7:0] $end
$scope module Arithmetic_Logical_Unit $end
$var wire 8 ^ operand2 [7:0] $end
$var wire 8 _ operand1 [7:0] $end
$var wire 1 K carry_in $end
$var wire 5 ` alu_op [4:0] $end
$var parameter 5 a ADC $end
$var parameter 5 b ADD $end
$var parameter 5 c ANA $end
$var parameter 5 d CMA $end
$var parameter 5 e CMC $end
$var parameter 5 f CMP $end
$var parameter 5 g DCR $end
$var parameter 5 h INR $end
$var parameter 5 i ORA $end
$var parameter 5 j RAL $end
$var parameter 5 k RAR $end
$var parameter 5 l RLC $end
$var parameter 5 m RRC $end
$var parameter 5 n SBB $end
$var parameter 5 o STC $end
$var parameter 5 p SUB $end
$var parameter 5 q XRA $end
$var reg 1 r aux_carry $end
$var reg 1 s carry $end
$var reg 8 t flags [7:0] $end
$var reg 1 u parity_even $end
$var reg 8 v result [7:0] $end
$var reg 1 w sign $end
$var reg 4 x temp_nibble [3:0] $end
$var reg 1 y zero $end
$upscope $end
$scope module Flag_Register $end
$var wire 1 ( clk $end
$var wire 8 z flag_in [7:0] $end
$var wire 1 * rst $end
$var wire 8 { flag_mask [7:0] $end
$var wire 1 K carry $end
$var reg 8 | flag_out [7:0] $end
$upscope $end
$scope module Instruction_Decoder $end
$var wire 8 } opcode [7:0] $end
$var reg 3 ~ des_reg [2:0] $end
$var reg 7 !" ins_encode [6:0] $end
$var reg 2 "" reg_pair [1:0] $end
$var reg 3 #" source_reg [2:0] $end
$upscope $end
$scope module Instruction_Register $end
$var wire 1 ( clk $end
$var wire 8 $" data_in [7:0] $end
$var wire 1 * rst $end
$var wire 1 @ ir_load $end
$var reg 8 %" data_out [7:0] $end
$upscope $end
$scope module Program_Counter $end
$var wire 16 &" addr_in [15:0] $end
$var wire 1 ( clk $end
$var wire 1 * rst $end
$var wire 1 : pc_load $end
$var wire 1 ; pc_inc $end
$var reg 16 '" addr_out [15:0] $end
$upscope $end
$scope module Register $end
$var wire 8 (" accumulator [7:0] $end
$var wire 1 ( clk $end
$var wire 3 )" reg_sel_read [2:0] $end
$var wire 3 *" reg_sel_write [2:0] $end
$var wire 1 * rst $end
$var wire 8 +" write_data [7:0] $end
$var wire 1 8 reg_write $end
$var wire 16 ," hl_addr [15:0] $end
$var wire 16 -" de_addr [15:0] $end
$var wire 16 ." bc_addr [15:0] $end
$var reg 8 /" A [7:0] $end
$var reg 8 0" B [7:0] $end
$var reg 8 1" C [7:0] $end
$var reg 8 2" D [7:0] $end
$var reg 8 3" E [7:0] $end
$var reg 8 4" H [7:0] $end
$var reg 8 5" L [7:0] $end
$var reg 8 6" reg_data [7:0] $end
$upscope $end
$scope module Stack_Pointer $end
$var wire 16 7" addr_in [15:0] $end
$var wire 1 ( clk $end
$var wire 1 * rst $end
$var wire 1 2 sp_load $end
$var wire 1 3 sp_inc $end
$var wire 1 4 sp_dec $end
$var reg 16 8" addr_out [15:0] $end
$upscope $end
$scope module Temp_Register $end
$var wire 1 ( clk $end
$var wire 8 9" operand_data_bus [7:0] $end
$var wire 1 * rst $end
$var wire 1 1 temp_enable $end
$var reg 8 :" alu_operand2 [7:0] $end
$upscope $end
$scope module Timing_and_Control_Unit $end
$var wire 1 ( clk $end
$var wire 7 ;" encoded_ins [6:0] $end
$var wire 1 * rst $end
$var parameter 5 <" EXECUTE $end
$var parameter 5 =" OF_T1 $end
$var parameter 5 >" OF_T2 $end
$var parameter 5 ?" OF_T3 $end
$var parameter 5 @" OF_T4 $end
$var parameter 5 A" OP1_T1 $end
$var parameter 5 B" OP1_T2 $end
$var parameter 5 C" OP1_T3 $end
$var parameter 5 D" OP2_T1 $end
$var parameter 5 E" OP2_T2 $end
$var parameter 5 F" OP2_T3 $end
$var parameter 5 G" RESET $end
$var parameter 5 H" WB1_T1 $end
$var parameter 5 I" WB1_T2 $end
$var parameter 5 J" WB1_T3 $end
$var parameter 5 K" WB2_T1 $end
$var parameter 5 L" WB2_T2 $end
$var parameter 5 M" WB2_T3 $end
$var reg 3 N" addr_bus_sel [2:0] $end
$var reg 1 % ale $end
$var reg 5 O" alu_opcode [4:0] $end
$var reg 3 P" data_bus_sel [2:0] $end
$var reg 8 Q" flag_register_mask [7:0] $end
$var reg 1 # io_m_bar $end
$var reg 1 @ ir_load $end
$var reg 5 R" next_state [4:0] $end
$var reg 1 ; pc_inc $end
$var reg 1 : pc_load $end
$var reg 5 S" present_state [4:0] $end
$var reg 1 " rd_bar $end
$var reg 1 8 reg_write $end
$var reg 1 4 sp_dec $end
$var reg 1 3 sp_inc $end
$var reg 1 2 sp_load $end
$var reg 1 1 temp_enable $end
$var reg 1 / w_load $end
$var reg 1 ! wr_bar $end
$var reg 1 , z_load $end
$upscope $end
$scope module WZ_Register $end
$var wire 1 ( clk $end
$var wire 8 T" data_in [7:0] $end
$var wire 1 * rst $end
$var wire 1 / w_load $end
$var wire 8 U" w_out [7:0] $end
$var wire 1 , z_load $end
$var wire 8 V" z_out [7:0] $end
$var wire 16 W" wz_addr [15:0] $end
$var reg 8 X" w_reg [7:0] $end
$var reg 8 Y" z_reg [7:0] $end
$upscope $end
$upscope $end
$upscope $end
$enddefinitions $end
$comment Show the parameter values. $end
$dumpall
b10001 M"
b10000 L"
b1111 K"
b1110 J"
b1101 I"
b1100 H"
b0 G"
b1010 F"
b1001 E"
b1000 D"
b111 C"
b110 B"
b101 A"
b100 @"
b11 ?"
b10 >"
b1 ="
b1011 <"
b1000 q
b10 p
b10000 o
b11 n
b1011 m
b1010 l
b1101 k
b1100 j
b111 i
b100 h
b101 g
b1001 f
b1111 e
b1110 d
b110 c
b0 b
b1 a
b100 [
b11 Z
b1 Y
b0 X
b101 W
b10 V
b101 U
b1 T
b0 S
b100 R
b11 Q
b10 P
$end
#0
$dumpvars
b0 Y"
b0 X"
b0 W"
b0 V"
b0 U"
bx T"
b0 S"
b1 R"
b0 Q"
b0 P"
b0 O"
b0 N"
b1000111 ;"
b0 :"
bx 9"
b1111111111111111 8"
b0 7"
b0 6"
b0 5"
b0 4"
b0 3"
b0 2"
b0 1"
b0 0"
b0 /"
b0 ."
b0 -"
b0 ,"
bx +"
b0 *"
b0 )"
b0 ("
b0 '"
b0 &"
b0 %"
bx $"
b0 #"
b0 ""
b1000111 !"
b0 ~
b0 }
b0 |
b0 {
b1000100 z
1y
b0 x
0w
b0 v
1u
b1000100 t
0s
0r
b0 `
b0 _
b0 ^
bx ]
b0 \
b0 O
b0 N
b0 M
b0 L
0K
b0 J
bx I
b0 H
b0 G
b0 F
b1000111 E
b0 D
b1000100 C
b0 B
b0 A
0@
b0 ?
b0 >
b0 =
b0 <
0;
0:
b0 9
08
b0 7
b0 6
b1111111111111111 5
04
03
02
01
b0 0
0/
b0 .
b0 -
0,
bx +
1*
bx )
0(
b0 '
b0xxxxxxxx &
0%
bx $
0#
1"
1!
$end
#5000
b110 ]
b110 $"
b110 +"
b110 9"
b110 T"
b110 )
b110 +
b0 &
b0 $
b0 I
1%
b10 R"
b1 S"
0*
1(
#10000
0(
#15000
bz ]
bz $"
bz +"
bz 9"
bz T"
bz )
bz +
b0zzzzzzzz &
bz $
bz I
0"
0%
b11 R"
b10 S"
1(
#20000
0(
#25000
1@
b100 R"
b11 S"
1(
#30000
0(
#35000
b0xxxxxxxx &
bx $
bx I
bx ]
bx $"
bx +"
bx 9"
bx T"
bx )
bx +
1"
0@
1;
b10 9
b10 ""
b100 E
b100 !"
b100 ;"
b100 S"
bz ?
bz }
bz %"
1(
#40000
0(
#45000
b1 \
b1 &"
b1 7"
b1 <
b1 '"
1(
#50000
0(
#55000
b10 \
b10 &"
b10 7"
b10 <
b10 '"
1(
#60000
0(
#65000
b11 \
b11 &"
b11 7"
b11 <
b11 '"
1(
#70000
0(
#75000
b100 \
b100 &"
b100 7"
b100 <
b100 '"
1(
#80000
0(
#85000
b101 \
b101 &"
b101 7"
b101 <
b101 '"
1(
#90000
0(
#95000
b110 \
b110 &"
b110 7"
b110 <
b110 '"
1(
#100000
0(
#105000
b111 \
b111 &"
b111 7"
b111 <
b111 '"
1(
#110000
0(
#115000
b1000 \
b1000 &"
b1000 7"
b1000 <
b1000 '"
1(
#120000
0(
#125000
b1001 \
b1001 &"
b1001 7"
b1001 <
b1001 '"
1(
#130000
0(
#135000
b1010 \
b1010 &"
b1010 7"
b1010 <
b1010 '"
1(
#140000
0(
#145000
b1011 \
b1011 &"
b1011 7"
b1011 <
b1011 '"
1(
#150000
0(
#155000
b1100 \
b1100 &"
b1100 7"
b1100 <
b1100 '"
1(
#160000
0(
#165000
b1101 \
b1101 &"
b1101 7"
b1101 <
b1101 '"
1(
#170000
0(
#175000
b1110 \
b1110 &"
b1110 7"
b1110 <
b1110 '"
1(
#180000
0(
#185000
b1111 \
b1111 &"
b1111 7"
b1111 <
b1111 '"
1(
#190000
0(
#195000
b10000 \
b10000 &"
b10000 7"
b10000 <
b10000 '"
1(
#200000
0(
#205000
b10001 \
b10001 &"
b10001 7"
b10001 <
b10001 '"
1(
#210000
0(
#215000
b10010 \
b10010 &"
b10010 7"
b10010 <
b10010 '"
1(
#220000
0(
#225000
b10011 \
b10011 &"
b10011 7"
b10011 <
b10011 '"
1(
#230000
0(
#235000
b10100 \
b10100 &"
b10100 7"
b10100 <
b10100 '"
1(
#240000
0(
#245000
b10101 \
b10101 &"
b10101 7"
b10101 <
b10101 '"
1(
#250000
0(
#255000
b10110 \
b10110 &"
b10110 7"
b10110 <
b10110 '"
1(
#260000
0(
#265000
b10111 \
b10111 &"
b10111 7"
b10111 <
b10111 '"
1(
#270000
0(
#275000
b11000 \
b11000 &"
b11000 7"
b11000 <
b11000 '"
1(
#280000
0(
#285000
b11001 \
b11001 &"
b11001 7"
b11001 <
b11001 '"
1(
#290000
0(
#295000
b11010 \
b11010 &"
b11010 7"
b11010 <
b11010 '"
1(
#300000
0(
#305000
b11011 \
b11011 &"
b11011 7"
b11011 <
b11011 '"
1(
